{
  "assetsByChunkName": {
    "path---manifesto": [
      "path---manifesto-4c2f9a0099222ec47e0a.js",
      "path---manifesto-4c2f9a0099222ec47e0a.js.map"
    ],
    "component---src-pages-index-js": [
      "component---src-pages-index-js-9bada67981190e42bd54.js",
      "component---src-pages-index-js-9bada67981190e42bd54.js.map"
    ],
    "path---": [
      "path----557518bd178906f8d58a.js",
      "path----557518bd178906f8d58a.js.map"
    ],
    "component---node-modules-gatsby-plugin-offline-app-shell-js": [
      "component---node-modules-gatsby-plugin-offline-app-shell-js-5c4c5a0f7af9dc69d6d7.js",
      "component---node-modules-gatsby-plugin-offline-app-shell-js-5c4c5a0f7af9dc69d6d7.js.map"
    ],
    "component---src-layouts-index-js": [
      "component---src-layouts-index-js-aa5717147d051a5561a1.js",
      "component---src-layouts-index-js-aa5717147d051a5561a1.js.map"
    ],
    "path---email-success": [
      "path---email-success-0ea2b5e13e35b564e641.js",
      "path---email-success-0ea2b5e13e35b564e641.js.map"
    ],
    "path---index": [
      "path---index-349f9912af7d0e6ab581.js",
      "path---index-349f9912af7d0e6ab581.js.map"
    ],
    "commons": [
      "commons-8c92a711b29d295a2ed8.js",
      "commons-8c92a711b29d295a2ed8.js.map"
    ],
    "component---src-templates-blog-post-template-js": [
      "component---src-templates-blog-post-template-js-566f65dd3ec88b7947b6.js",
      "component---src-templates-blog-post-template-js-566f65dd3ec88b7947b6.js.map"
    ],
    "path---offline-plugin-app-shell-fallback": [
      "path---offline-plugin-app-shell-fallback-a0e39f21c11f6a62c5ab.js",
      "path---offline-plugin-app-shell-fallback-a0e39f21c11f6a62c5ab.js.map"
    ],
    "app": [
      "app-972e110e311956dfd70c.js",
      "build-js-styles.css",
      "app-972e110e311956dfd70c.js.map",
      "build-js-styles.css.map"
    ]
  }
}