<svg width="440" height="115" viewBox="0 0 440 115" version="1.1" xmlns="http://www.w3.org/2000/svg" xmlns:xlink="http://www.w3.org/1999/xlink">
<title>logo</title>
<desc>Created using Figma</desc>
<g id="Canvas" transform="translate(293 281)">
<g id="logo">
<g id="Au">
<use xlink:href="#path0_fill" transform="translate(-285 -250)" fill="#FFFFFF"/>
</g>
<g id="tomatium">
<use xlink:href="#path1_fill" transform="translate(-164 -250)" fill="#FFFFFF"/>
</g>
<g id="Rectangle">
<mask id="mask0_outline_ins">
<use xlink:href="#path2_fill" fill="white" transform="translate(-293 -281)"/>
</mask>
<g mask="url(#mask0_outline_ins)">
<use xlink:href="#path3_stroke_2x" transform="translate(-293 -281)" fill="#FFFFFF"/>
</g>
</g>
</g>
</g>
<defs>
<path id="path0_fill" d="M 34.78 53.205L 26.899 32.596C 26.3317 31.19 25.7643 29.414 25.197 27.268C 24.9257 28.3287 24.642 29.3153 24.346 30.228C 24.0747 31.1407 23.8033 31.9547 23.532 32.67L 15.688 53.205L 34.78 53.205ZM 50.357 73L 44.289 73C 43.5983 73 43.031 72.8273 42.587 72.482C 42.143 72.1367 41.8223 71.6927 41.625 71.15L 36.926 58.829L 13.505 58.829L 8.806 71.15C 8.63333 71.6187 8.31267 72.0503 7.844 72.445C 7.37533 72.815 6.808 73 6.142 73L 0.074 73L 21.238 19.868L 29.193 19.868L 50.357 73ZM 85.9082 35.408L 85.9082 73L 81.5792 73C 80.5926 73 79.9512 72.519 79.6552 71.557L 79.1372 67.783C 78.3232 68.6463 77.4722 69.4357 76.5842 70.151C 75.6962 70.8663 74.7466 71.483 73.7352 72.001C 72.7239 72.4943 71.6509 72.8767 70.5162 73.148C 69.3816 73.444 68.1606 73.592 66.8532 73.592C 64.7812 73.592 62.9559 73.2467 61.3772 72.556C 59.8232 71.8653 58.5159 70.9033 57.4552 69.67C 56.3946 68.412 55.5929 66.9073 55.0502 65.156C 54.5076 63.4047 54.2362 61.4683 54.2362 59.347L 54.2362 35.408L 61.4882 35.408L 61.4882 59.347C 61.4882 62.0357 62.1049 64.1323 63.3382 65.637C 64.5716 67.117 66.4586 67.857 68.9992 67.857C 70.8492 67.857 72.5759 67.4253 74.1792 66.562C 75.7826 65.674 77.2872 64.4653 78.6932 62.936L 78.6932 35.408L 85.9082 35.408Z"/>
<path id="path1_fill" d="M 16.835 73.592C 13.801 73.592 11.4577 72.741 9.805 71.039C 8.177 69.337 7.363 66.9073 7.363 63.75L 7.363 41.254L 2.997 41.254C 2.57767 41.254 2.22 41.1307 1.924 40.884C 1.65267 40.6127 1.517 40.218 1.517 39.7L 1.517 36.777L 7.622 35.926L 9.25 24.715C 9.34867 24.2957 9.53367 23.975 9.805 23.753C 10.101 23.5063 10.471 23.383 10.915 23.383L 14.578 23.383L 14.578 36L 25.234 36L 25.234 41.254L 14.578 41.254L 14.578 63.269C 14.578 64.749 14.9357 65.859 15.651 66.599C 16.391 67.3143 17.3283 67.672 18.463 67.672C 19.129 67.672 19.6963 67.5857 20.165 67.413C 20.6583 67.2403 21.0777 67.0553 21.423 66.858C 21.7683 66.636 22.0643 66.4387 22.311 66.266C 22.5577 66.0933 22.7797 66.007 22.977 66.007C 23.2237 66.007 23.4087 66.0687 23.532 66.192C 23.68 66.2907 23.828 66.4633 23.976 66.71L 26.122 70.188C 24.938 71.2733 23.532 72.112 21.904 72.704C 20.276 73.296 18.5863 73.592 16.835 73.592ZM 47.6838 34.816C 50.4464 34.816 52.9378 35.2723 55.1578 36.185C 57.4024 37.073 59.3017 38.368 60.8558 40.07C 62.4344 41.7473 63.6431 43.7823 64.4818 46.175C 65.3204 48.543 65.7398 51.207 65.7398 54.167C 65.7398 57.127 65.3204 59.8033 64.4818 62.196C 63.6431 64.5887 62.4344 66.6237 60.8558 68.301C 59.3017 69.9783 57.4024 71.2733 55.1578 72.186C 52.9378 73.074 50.4464 73.518 47.6838 73.518C 44.8964 73.518 42.3804 73.074 40.1358 72.186C 37.9158 71.2733 36.0164 69.9783 34.4378 68.301C 32.8591 66.6237 31.6381 64.5887 30.7748 62.196C 29.9361 59.8033 29.5168 57.127 29.5168 54.167C 29.5168 51.207 29.9361 48.543 30.7748 46.175C 31.6381 43.7823 32.8591 41.7473 34.4378 40.07C 36.0164 38.368 37.9158 37.073 40.1358 36.185C 42.3804 35.2723 44.8964 34.816 47.6838 34.816ZM 47.6838 67.894C 51.2358 67.894 53.8874 66.6977 55.6388 64.305C 57.3901 61.9123 58.2657 58.5453 58.2657 54.204C 58.2657 49.8627 57.3901 46.4957 55.6388 44.103C 53.8874 41.6857 51.2358 40.477 47.6838 40.477C 44.0824 40.477 41.3937 41.6857 39.6178 44.103C 37.8664 46.4957 36.9907 49.8627 36.9907 54.204C 36.9907 58.5453 37.8664 61.9123 39.6178 64.305C 41.3937 66.6977 44.0824 67.894 47.6838 67.894ZM 73.7936 73L 73.7936 35.408L 78.1226 35.408C 79.1339 35.408 79.7629 35.889 80.0096 36.851L 80.5276 40.44C 81.9089 38.7873 83.4383 37.443 85.1156 36.407C 86.8176 35.3463 88.8033 34.816 91.0726 34.816C 93.5639 34.816 95.5866 35.5067 97.1406 36.888C 98.6946 38.2447 99.8293 40.0947 100.545 42.438C 101.087 41.106 101.79 39.959 102.654 38.997C 103.517 38.035 104.479 37.2457 105.54 36.629C 106.6 36.0123 107.723 35.556 108.907 35.26C 110.115 34.964 111.336 34.816 112.57 34.816C 114.568 34.816 116.344 35.1367 117.898 35.778C 119.476 36.3947 120.808 37.3073 121.894 38.516C 122.979 39.7247 123.805 41.217 124.373 42.993C 124.94 44.769 125.224 46.7917 125.224 49.061L 125.224 73L 117.972 73L 117.972 49.061C 117.972 46.249 117.355 44.1277 116.122 42.697C 114.913 41.2663 113.137 40.551 110.794 40.551C 109.758 40.551 108.771 40.736 107.834 41.106C 106.896 41.4513 106.07 41.9817 105.355 42.697C 104.664 43.4123 104.109 44.3003 103.69 45.361C 103.295 46.4217 103.098 47.655 103.098 49.061L 103.098 73L 95.8456 73L 95.8456 49.061C 95.8456 46.1503 95.2659 44.0043 94.1066 42.623C 92.9473 41.2417 91.2453 40.551 89.0006 40.551C 87.4466 40.551 86.0036 40.958 84.6716 41.772C 83.3396 42.586 82.1186 43.696 81.0086 45.102L 81.0086 73L 73.7936 73ZM 155.132 56.313C 152.197 56.4117 149.706 56.646 147.658 57.016C 145.611 57.3613 143.946 57.83 142.663 58.422C 141.381 59.014 140.456 59.717 139.888 60.531C 139.321 61.3203 139.037 62.2083 139.037 63.195C 139.037 64.1323 139.185 64.9463 139.481 65.637C 139.802 66.303 140.221 66.858 140.739 67.302C 141.282 67.7213 141.911 68.0297 142.626 68.227C 143.342 68.4243 144.119 68.523 144.957 68.523C 146.067 68.523 147.079 68.412 147.991 68.19C 148.929 67.968 149.804 67.6597 150.618 67.265C 151.432 66.8457 152.209 66.34 152.949 65.748C 153.689 65.156 154.417 64.4777 155.132 63.713L 155.132 56.313ZM 133.968 40.662C 136.065 38.664 138.334 37.1717 140.776 36.185C 143.243 35.1983 145.944 34.705 148.879 34.705C 151.025 34.705 152.925 35.0627 154.577 35.778C 156.23 36.4687 157.624 37.443 158.758 38.701C 159.893 39.959 160.744 41.4637 161.311 43.215C 161.903 44.9663 162.199 46.9027 162.199 49.024L 162.199 73L 158.98 73C 158.265 73 157.722 72.889 157.352 72.667C 156.982 72.4203 156.686 71.9763 156.464 71.335L 155.687 68.042C 154.725 68.93 153.776 69.7193 152.838 70.41C 151.901 71.076 150.914 71.6557 149.878 72.149C 148.867 72.6177 147.782 72.9753 146.622 73.222C 145.463 73.4687 144.18 73.592 142.774 73.592C 141.294 73.592 139.901 73.3947 138.593 73C 137.311 72.5807 136.188 71.9517 135.226 71.113C 134.264 70.2743 133.5 69.226 132.932 67.968C 132.39 66.71 132.118 65.2423 132.118 63.565C 132.118 62.085 132.513 60.6667 133.302 59.31C 134.116 57.9287 135.424 56.6953 137.224 55.61C 139.05 54.5247 141.418 53.6367 144.328 52.946C 147.264 52.2553 150.865 51.8607 155.132 51.762L 155.132 49.024C 155.132 46.1873 154.528 44.066 153.319 42.66C 152.111 41.254 150.335 40.551 147.991 40.551C 146.413 40.551 145.081 40.7483 143.995 41.143C 142.935 41.5377 142.01 41.9817 141.22 42.475C 140.456 42.9437 139.777 43.3753 139.185 43.77C 138.618 44.1647 138.026 44.362 137.409 44.362C 136.916 44.362 136.484 44.2263 136.114 43.955C 135.769 43.6837 135.485 43.363 135.263 42.993L 133.968 40.662ZM 206.983 73L 199.731 73L 199.731 41.254L 180.861 41.254L 180.861 63.269C 180.861 64.749 181.219 65.859 181.934 66.599C 182.674 67.3143 183.612 67.672 184.746 67.672C 185.412 67.672 185.98 67.5857 186.448 67.413C 186.942 67.2403 187.361 67.0553 187.706 66.858C 188.052 66.636 188.348 66.4387 188.594 66.266C 188.841 66.0933 189.063 66.007 189.26 66.007C 189.507 66.007 189.692 66.0687 189.815 66.192C 189.963 66.2907 190.111 66.4633 190.259 66.71L 192.405 70.188C 191.221 71.2733 189.815 72.112 188.187 72.704C 186.559 73.296 184.87 73.592 183.118 73.592C 180.084 73.592 177.741 72.741 176.088 71.039C 174.46 69.337 173.646 66.9073 173.646 63.75L 173.646 41.254L 169.28 41.254C 168.861 41.254 168.503 41.1307 168.207 40.884C 167.936 40.6127 167.8 40.218 167.8 39.7L 167.8 36.777L 173.942 35.926L 175.533 24.715C 175.632 24.2957 175.817 23.975 176.088 23.753C 176.384 23.5063 176.754 23.383 177.198 23.383L 180.861 23.383L 180.861 36L 206.983 36L 206.983 73ZM 208.611 23.568C 208.611 24.234 208.476 24.8753 208.204 25.492C 207.933 26.084 207.563 26.6143 207.094 27.083C 206.65 27.527 206.12 27.8847 205.503 28.156C 204.887 28.4027 204.245 28.526 203.579 28.526C 202.913 28.526 202.284 28.4027 201.692 28.156C 201.1 27.8847 200.57 27.527 200.101 27.083C 199.657 26.6143 199.3 26.084 199.028 25.492C 198.782 24.8753 198.658 24.234 198.658 23.568C 198.658 22.8773 198.782 22.2237 199.028 21.607C 199.3 20.9903 199.657 20.46 200.101 20.016C 200.57 19.5473 201.1 19.1897 201.692 18.943C 202.284 18.6717 202.913 18.536 203.579 18.536C 204.245 18.536 204.887 18.6717 205.503 18.943C 206.12 19.1897 206.65 19.5473 207.094 20.016C 207.563 20.46 207.933 20.9903 208.204 21.607C 208.476 22.2237 208.611 22.8773 208.611 23.568ZM 248.723 35.408L 248.723 73L 244.394 73C 243.407 73 242.766 72.519 242.47 71.557L 241.952 67.783C 241.138 68.6463 240.287 69.4357 239.399 70.151C 238.511 70.8663 237.561 71.483 236.55 72.001C 235.538 72.4943 234.465 72.8767 233.331 73.148C 232.196 73.444 230.975 73.592 229.668 73.592C 227.596 73.592 225.77 73.2467 224.192 72.556C 222.638 71.8653 221.33 70.9033 220.27 69.67C 219.209 68.412 218.407 66.9073 217.865 65.156C 217.322 63.4047 217.051 61.4683 217.051 59.347L 217.051 35.408L 224.303 35.408L 224.303 59.347C 224.303 62.0357 224.919 64.1323 226.153 65.637C 227.386 67.117 229.273 67.857 231.814 67.857C 233.664 67.857 235.39 67.4253 236.994 66.562C 238.597 65.674 240.102 64.4653 241.508 62.936L 241.508 35.408L 248.723 35.408ZM 258.794 73L 258.794 35.408L 263.123 35.408C 264.134 35.408 264.763 35.889 265.01 36.851L 265.528 40.44C 266.909 38.7873 268.438 37.443 270.116 36.407C 271.818 35.3463 273.803 34.816 276.073 34.816C 278.564 34.816 280.587 35.5067 282.141 36.888C 283.695 38.2447 284.829 40.0947 285.545 42.438C 286.087 41.106 286.79 39.959 287.654 38.997C 288.517 38.035 289.479 37.2457 290.54 36.629C 291.6 36.0123 292.723 35.556 293.907 35.26C 295.115 34.964 296.336 34.816 297.57 34.816C 299.568 34.816 301.344 35.1367 302.898 35.778C 304.476 36.3947 305.808 37.3073 306.894 38.516C 307.979 39.7247 308.805 41.217 309.373 42.993C 309.94 44.769 310.224 46.7917 310.224 49.061L 310.224 73L 302.972 73L 302.972 49.061C 302.972 46.249 302.355 44.1277 301.122 42.697C 299.913 41.2663 298.137 40.551 295.794 40.551C 294.758 40.551 293.771 40.736 292.834 41.106C 291.896 41.4513 291.07 41.9817 290.355 42.697C 289.664 43.4123 289.109 44.3003 288.69 45.361C 288.295 46.4217 288.098 47.655 288.098 49.061L 288.098 73L 280.846 73L 280.846 49.061C 280.846 46.1503 280.266 44.0043 279.107 42.623C 277.947 41.2417 276.245 40.551 274.001 40.551C 272.447 40.551 271.004 40.958 269.672 41.772C 268.34 42.586 267.119 43.696 266.009 45.102L 266.009 73L 258.794 73Z"/>
<path id="path2_fill" d="M 0 0L 123.598 0L 123.598 115L 0 115L 0 0Z"/>
<path id="path3_stroke_2x" d="M 0 0L 0 -4L -4 -4L -4 0L 0 0ZM 123.598 0L 127.598 0L 127.598 -4L 123.598 -4L 123.598 0ZM 123.598 115L 123.598 119L 127.598 119L 127.598 115L 123.598 115ZM 0 115L -4 115L -4 119L 0 119L 0 115ZM 0 4L 123.598 4L 123.598 -4L 0 -4L 0 4ZM 119.598 0L 119.598 115L 127.598 115L 127.598 0L 119.598 0ZM 123.598 111L 0 111L 0 119L 123.598 119L 123.598 111ZM 4 115L 4 0L -4 0L -4 115L 4 115Z"/>
</defs>
</svg>
